{
    "GiAdvarselOmBrukerHarVersjonUnder": 444,
    "SyncIntervallMinutter": {
        "Default": 30,
        "epstoffen": 1
    },
    "UrlForBygg": "http://sblogg.no/bygg/",
    "FørstegangsNedlastingsbase": "https://storage.googleapis.com/sblogg-prod-yap-entrep/yap.zip",
    "SendInnDebugLogger": ["*"],    
    "Bakgrunnskart": [
        {
            "Name": "Landskap",
            "Url": "http://localhost:8181/services.geodataonline.no/arcgis/rest/services/Geocache_UTM33_WGS84/GeocacheBasis/MapServer"
        },
        {
            "Name": "Bilder",
            "Url": "http://localhost:8181/services.geodataonline.no/arcgis/rest/services/Geocache_UTM33_WGS84/GeocacheBilder/MapServer",
            "DefaultHidden": true
        } 
    ],
    "Kartlag": [
        {
            "Name": "Entreprenor",
            "Url": "http://localhost:8181/104.155.62.122/prodcache/sblogg/rest/services/Entreprenor/MapServer",
            "MustPrepare": true
        }
    ],
    "Gardskart": {
        "Url": "http://localhost:8181/104.155.62.122/prodcache/sblogg/rest/services/REPLACE_THIS/gardskart/MapServer",
        "Opacity": 0.7
    },
    "Produksjon": [
        "Kontroll",
        "Sporlogg",
        "RegistreringerPunkt",
        "RegistreringerLinjer",
        "RegistreringerFlater",
        "Tømmerkjøp",
        "Tømmerdrift",
        "Oppdrag",
        "Oppdrag_attachments",
		"SporloggLB",
        "Rapporter",
        "Sortiment",
        "Lass",
		"StatusLB",
        "hoydemaalinger",
        "gflmaalinger"
    ],
    "ProduksjonSyncFilter": {
        "Oppdrag": "json->'attributes'->>'EntrepHogst'='[[brukernavn]]'"
    },
    "FraOppdragTilSporlogg": {
        "KontraktProsjekt": "Kontrakt",
        "Fornavn": "Fornavn",
        "Etternavn": "Etternavn",
        "Komnr": "Kommnr",
        "Gnr": "GNR",
        "Bnr": "BNR"
    },
    "FraOppdragTilKontroll": {
        "KontraktProsjekt": "Kontrakt",
        "Hovednr": "Hovednummer",
        "Komnr": "Kommnr",
        "Fornavn": "Fornavn",
        "Etternavn": "Etternavn",
        "Gnr": "Gnr",
        "Bnr": "Bnr"
    },
    "Verktøymeny": [
        "RegistreringerPunkt",
        "RegistreringerLinjer",
        "RegistreringerFlater"
    ],
    "SynligeProduksjonsLag": [
        "Tømmerkjøp",
        "Tømmerdrift",
        "RegistreringerFlater",
        "RegistreringerLinjer",
		"SporloggLB",
        "Sporlogg",
        "RegistreringerPunkt"
    ],
    "MinScale" : {
        "Default": 50000,
        "Tømmerkjøp": 100000,
        "Tømmerdrift": 100000,
        "Planting": 100000,
        "Ungskogpleie": 100000,
        "Forhåndsrydding": 100000       
    },
    "ProduksjonsLagUtenOIDFilter": [
        "RegistreringerPunkt",
        "RegistreringerFlater"
    ],
    "FeltSomSkalVisesIPopup": {
        "RegistreringerPunkt": "Tema",
        "RegistreringerLinjer": "Tema",
        "RegistreringerFlater": "Tema",
        "Tømmerkjøp": "Navn",
        "Tømmerdrift": "Navn"
    },
    "FraOppdragTilLass": {
        "KontraktProsjekt": "Kontrakt",
        "Fornavn": "Fornavn",
        "Etternavn": "Etternavn"
    },
	"FelterSomSkalVelgesIAvviksSkjema": {
        "Kontroll": [
			"AntTrePrKub",
            "DriftsprisHogst",
            "DriftsprisKjoring"
		]		
    },
    "FelterSomSkalVises": {
        "hoydemaalinger": [
            "val",
            "forettertynning"
        ],
        "gflmaalinger": [
            "val",
            "forettertynning"
        ],
        "Kontroll": [
            "Aptering01",
            "Arsak01",
            "Tiltak01",
            "FristDato01",
            "Lengdekontroll02",
            "Arsak02",		
            "Tiltak02",
            "Fristdato02",
            "Tommerlonner03",
            "Arsak03",
            "Tiltak03",
            "FristDato03",
            "AnnetStiLoperKultur04",
            "Arsak04",
            "Tiltak04",
            "FristDato04",
            "ForurensningAvfall05",
            "Arsak05",
            "Tiltak05",
            "FristDato05",
            "BiologiskeOmr06",
            "Arsak06",
            "Tiltak06",
            "FristDato06",
            "LivslopstreUtvalg07",
            "Arsak07",
            "Tiltak07",
            "FristDato07",
            "LagerDodVed08",
            "Arsak08",
            "Tiltak08",
            "FristDato08",
			"Sporskader10",
            "Arsak10",
            "Tiltak10",
            "FristDato10",
            "Kantsoner11",
            "Arsak11",
            "Tiltak11",
            "FristDato11",
            "KantbreddeBekk12",
            "KantbreddeVatnBekk13",
            "KantbreddeMyr14"
        ],
		"KontrollMedLass": [
			"-Sporskader10",
            "-Tommerlonner03"
		],
        "RegistreringerPunkt": [
            "Tema",
            "Kommentar"
        ],
        "RegistreringerLinjer": [
            "Tema",
            "Kommentar"
        ],
        "RegistreringerFlater": [
            "Tema",
            "Kommentar"
        ]
    }
}